<?xml version="1.0"?>

<robot name="nxt_simple_car"
    xmlns:sensor="http://playerstage.sourceforge.net/gazebo/xmlschema/#sensor"
    xmlns:controller="http://playerstage.sourceforge.net/gazebo/xmlschema/#controller"
    xmlns:interface="http://playerstage.sourceforge.net/gazebo/xmlschema/#interface">
    
    <!-- Included URDF Files -->
    <include filename="$(find nxt_robot_simple_car)/urdf/nxt_base.xacro" />
    
    <nxt />
</robot>
