<?xml version="1.0"?>

<robot name="nxt_simple_car"
    xmlns:sensor="http://playerstage.sourceforge.net/gazebo/xmlschema/#sensor"
    xmlns:controller="http://playerstage.sourceforge.net/gazebo/xmlschema/#controller"
    xmlns:interface="http://playerstage.sourceforge.net/gazebo/xmlschema/#interface">
    
    <!-- Included URDF Files -->
    <include filename="$(find nxt_robot_simple_car)/urdf/nxt_base.xacro" />
    <include filename="$(find nxt_robot_simple_car)/urdf/nxt_light_sensor.xacro" />

    <nxt />

    <nxt_light_vertical left_parent="left_bumper_beam" right_parent="right_bumper_beam" name="light_sensor" ros_topic="light_sensor" update_rate="10"/>
</robot>
